<svg id="Group_3224" data-name="Group 3224" xmlns="http://www.w3.org/2000/svg" width="40.054" height="54.309" viewBox="0 0 40.054 54.309">
  <path id="Path_13017" data-name="Path 13017" d="M68.562,267.473s-2.075,1.207,1.477,1.615a31.076,31.076,0,0,0,11.246-.477,19.569,19.569,0,0,0,2.988,1.459c-10.631,4.557-24.061-.264-15.711-2.6" transform="translate(-55.662 -225.473)" fill="#5382a1"/>
  <path id="Path_13018" data-name="Path 13018" d="M58.626,229.659s-2.328,1.723,1.227,2.091a43.871,43.871,0,0,0,14.51-.7,6.441,6.441,0,0,0,2.235,1.363c-12.854,3.759-27.172.3-17.972-2.757" transform="translate(-47.025 -193.605)" fill="#5382a1"/>
  <path id="Path_13019" data-name="Path 13019" d="M131.064,85.79c2.62,3.016-.688,5.73-.688,5.73s6.652-3.434,3.6-7.734c-2.853-4.01-5.041-6,6.8-12.872,0,0-18.592,4.643-9.712,14.876" transform="translate(-108.511 -59.821)" fill="#e76f00"/>
  <path id="Path_13020" data-name="Path 13020" d="M37.131,292.98s1.536,1.265-1.691,2.244c-6.137,1.859-25.542,2.42-30.932.074-1.938-.843,1.7-2.013,2.839-2.258a7.366,7.366,0,0,1,1.873-.21c-2.155-1.518-13.929,2.981-5.981,4.269,21.677,3.515,39.514-1.583,33.892-4.119" transform="translate(-0.517 -246.582)" fill="#5382a1"/>
  <path id="Path_13021" data-name="Path 13021" d="M37.79,190.433s-9.871,2.344-3.5,3.2a74.126,74.126,0,0,0,13.056-.14c4.085-.345,8.187-1.077,8.187-1.077a17.332,17.332,0,0,0-2.482,1.328c-10.023,2.636-29.387,1.41-23.812-1.287a18.677,18.677,0,0,1,8.548-2.02" transform="translate(-23.892 -160.539)" fill="#5382a1"/>
  <path id="Path_13022" data-name="Path 13022" d="M200.409,197.565c10.189-5.295,5.478-10.383,2.19-9.7a7.615,7.615,0,0,0-1.165.313,1.857,1.857,0,0,1,.871-.672c6.505-2.287,11.508,6.745-2.1,10.323a.883.883,0,0,0,.2-.267" transform="translate(-168.804 -157.774)" fill="#5382a1"/>
  <path id="Path_13023" data-name="Path 13023" d="M95.156.371S100.8,6.016,89.8,14.7c-8.817,6.963-2.011,10.933,0,15.469-5.147-4.644-8.923-8.731-6.39-12.536C87.129,12.045,97.432,9.338,95.156.371" transform="translate(-69.694 -0.371)" fill="#e76f00"/>
  <path id="Path_13024" data-name="Path 13024" d="M54.117,318c9.78.626,24.8-.347,25.155-4.975,0,0-.684,1.754-8.083,3.148a80.414,80.414,0,0,1-24.75.381s1.25,1.035,7.678,1.447" transform="translate(-39.218 -263.863)" fill="#5382a1"/>
</svg>
