<svg xmlns="http://www.w3.org/2000/svg" width="83.157" height="59" viewBox="0 0 83.157 59">
  <g id="Group_3269" data-name="Group 3269" transform="translate(-221.843 -30)">
    <text id="Technologies" transform="translate(223 86)" fill="#0089ff" font-size="12" font-family="ArialRoundedMTBold, Arial Rounded MT" letter-spacing="0.02em"><tspan x="0" y="0">Technologies</tspan></text>
    <g id="Group_3268" data-name="Group 3268" transform="translate(-5)">
      <path id="Union_5" data-name="Union 5" d="M47.677,39.827A3.16,3.16,0,0,1,48.4,37.81l-2.651-4.992a2.965,2.965,0,0,1-.3.015c-.092,0-.183-.006-.273-.014l-2.591,4.972a3.174,3.174,0,1,1-2.435-1.139c.093,0,.184.007.274.014l2.591-4.972a3.174,3.174,0,1,1,4.884-.018l2.652,4.991c.1-.008.2-.015.3-.015a3.174,3.174,0,1,1-3.173,3.174ZM26.2,42.85a4.326,4.326,0,0,1-1.963-5.888l17.6-34.411a4.153,4.153,0,0,1,7.606,0l8.377,16.664H65.04a3.7,3.7,0,1,1,0,7.391h-3.5l5.206,10.355c2.515,4.784-4.908,8.586-7.116,3.8L45.643,12.119,31.658,40.765A4.074,4.074,0,0,1,27.691,43,7.843,7.843,0,0,1,26.2,42.85ZM70.214,22.912a4.435,4.435,0,1,1,4.435,4.434A4.435,4.435,0,0,1,70.214,22.912Zm-51.736,0a4.435,4.435,0,1,1,4.434,4.434A4.435,4.435,0,0,1,18.477,22.912ZM3.7,26.608a3.7,3.7,0,0,1,0-7.392H13.3a3.7,3.7,0,0,1,0,7.392ZM56.911,7.391a3.7,3.7,0,1,1,0-7.391h9.608a3.7,3.7,0,0,1,0,7.391Z" transform="translate(228 30)" fill="#0089ff"/>
      <path id="Path_13071" data-name="Path 13071" d="M3734.858-1325.541h-14.224a15.666,15.666,0,0,0-5.815,1.084c-2.829,1.153-5.7,3.608-5.653,8.735.084,10.255,0,27.448,0,24.961" transform="translate(-3478.822 1359.576)" fill="none" stroke="#0089ff" stroke-linejoin="round" stroke-width="7"/>
    </g>
  </g>
</svg>
